Dashboard Development with ridgeline plot
…
Combine data

all_data <- covid_data %>% 
    left_join(pop_data, by = c("Municipality_name" = "Regios"))
all_data 

## # A tibble: 168,210 x 12
##    Date_of_publica Municipality_co Municipality_na Province Security_region
##    <date>           <chr>            <chr>            <chr>    <chr>           
##  1 2020-02-27       GM0014           Groningen        Groning VR01            
##  2 2020-02-27       GM0034           Almere           Flevola VR25            
##  3 2020-02-27       GM0037           Stadskanaal      Groning VR01            
##  4 2020-02-27       GM0047           Veendam          Groning VR01            
##  5 2020-02-27       GM0050           Zeewolde         Flevola VR25            
##  6 2020-02-27       GM0059           Achtkarspelen    Frysln  VR02            
##  7 2020-02-27       GM0060           Ameland          Frysln  VR02            
##  8 2020-02-27       GM0072           Harlingen        Frysln  VR02            
##  9 2020-02-27       GM0074           Heerenveen       Frysln  VR02            
## 10 2020-02-27       GM0080           Leeuwarden       Frysln  VR02            
## #  with 168,200 more rows, and 7 more variables: Security_region_name <chr>,
## #   Municipal_health_service <chr>, ROAZ_region <chr>, Total_reported <dbl>,
## #   Hospital_admission <dbl>, Deceased <dbl>, Bevolking <dbl>
…
and recreate the merge

all_data <- covid_data %>% left_join(pop_data, by = c("Municipality_name" = "Regios"))
all_data 

## # A tibble: 168,210 x 12
##    Date_of_publica Municipality_co Municipality_na Province Security_region
##    <date>           <chr>            <chr>            <chr>    <chr>           
##  1 2020-02-27       GM0014           Groningen        Groning VR01            
##  2 2020-02-27       GM0034           Almere           Flevola VR25            
##  3 2020-02-27       GM0037           Stadskanaal      Groning VR01            
##  4 2020-02-27       GM0047           Veendam          Groning VR01            
##  5 2020-02-27       GM0050           Zeewolde         Flevola VR25            
##  6 2020-02-27       GM0059           Achtkarspelen    Frysln  VR02            
##  7 2020-02-27       GM0060           Ameland          Frysln  VR02            
##  8 2020-02-27       GM0072           Harlingen        Frysln  VR02            
##  9 2020-02-27       GM0074           Heerenveen       Frysln  VR02            
## 10 2020-02-27       GM0080           Leeuwarden       Frysln  VR02            
## #  with 168,200 more rows, and 7 more variables: Security_region_name <chr>,
## #   Municipal_health_service <chr>, ROAZ_region <chr>, Total_reported <dbl>,
## #   Hospital_admission <dbl>, Deceased <dbl>, Bevolking <dbl>
…
There is something funny going on with the Amsterdam plot when making smaller selections. Have a look at the selection for that city:

filter_data(all_data, "Amsterdam", start_date, end_date) %>% 
    select(c(2, 9:15))

## # A tibble: 56 x 8
##    Date_of_publica ROAZ_region Total_reported Hospital_admiss Deceased
##    <date>           <chr>                <dbl>            <dbl>    <dbl>
##  1 2021-04-19       Netwerk Ac            165                5        1
##  2 2021-04-19       SpoedZorgN            116                3        0
##  3 2021-04-20       Netwerk Ac            198                3        1
##  4 2021-04-20       SpoedZorgN            122                1        0
##  5 2021-04-21       Netwerk Ac            187                8        0
##  6 2021-04-21       SpoedZorgN            139                6        0
##  7 2021-04-22       Netwerk Ac            202                3        0
##  8 2021-04-22       SpoedZorgN            162                1        1
##  9 2021-04-23       Netwerk Ac            249                3        0
## 10 2021-04-23       SpoedZorgN            169                2        1
## #  with 46 more rows, and 3 more variables: Bevolking <dbl>, Total_norm <dbl>,
## #   Hospital_norm <dbl>

There is the problem: there are always two entries for a single day. A course of action should be taken: select one, add them, or calculate an average. Since they seem to refer to a region (ROAZ_region) I will sum them for municipalities. This is the way to do that.

tmp <- filter(all_data, Municipality_name == "Amsterdam")
combined_counts <- tmp %>% 
    group_by(Date_of_publication, Municipality_name) %>%
    summarize(Total = sum(Total_reported),
              Hospital = sum(Hospital_admission),
              Deaths = sum(Deceased),
              .groups = "drop")
combined_counts

## # A tibble: 445 x 5
##    Date_of_publication Municipality_name Total Hospital Deaths
##    <date>              <chr>             <dbl>    <dbl>  <dbl>
##  1 2020-02-27          Amsterdam             0        0      0
##  2 2020-02-28          Amsterdam             0        0      0
##  3 2020-02-29          Amsterdam             1        0      0
##  4 2020-03-01          Amsterdam             0        0      0
##  5 2020-03-02          Amsterdam             1        0      0
##  6 2020-03-03          Amsterdam             0        0      0
##  7 2020-03-04          Amsterdam             0        0      0
##  8 2020-03-05          Amsterdam             1        0      0
##  9 2020-03-06          Amsterdam             0        0      0
## 10 2020-03-07          Amsterdam             1        0      0
## #  with 435 more rows
…
